{   
    "like": [
      {
        "currentPage": 1,
        "totalPages": 2,
        "totalElements": 2,
        "contents": [
          {
            "likeId" : 1,
            "exhibition" : {
              "exhibitioId" : 10,
              "title" : "살바도르달리 전시회 ",
              "place" : "DDP", 
              "startDate" : "2021-12-21 ",
              "endDate" : "2022-03-20 "
            }
          }
        ]
      }
    ],
      
    "Review": [
      {
        "nickname": "user1",
        "content": "너무 내 취향ㅠㅜ 뫄뫄 작가님 최고됨..",
        "registerDate": "2022-01-22T22:25:33.5398894",
        "lastModifiedDate": "2022-01-11T11:14:34.845039"
      }
    ],
  
    "exhibitionSearch": [
      {
        "currentPage": 1,
        "totalPages": 2,
        "totalElements": 15,
        "content": [
          {
            "exhibitionId": "1",
            "title": "살바도르달리 전시회",
            "place" : "DDP", 
            "city" : "서울시",
            "district":"서초구",
            "latitude":37.5, 
            "longitude": 126.99 ,
            "startDate" : "2021-12-21",
            "endDate" : "2022-03-20 ",
            "contactLink":"https://",
            "ticketPrice" :"15000원",
            "reservationLink": "https://",
            "posterUrl": "https://",
            "progress":true,
            "likeCount": 120,
            "like": "30"
          }
        ]
      }
    ],
  
    "content": [
      {
        "exhibitionId" : 1,
        "title" : "살바도르달전시회 ",
        "place" : "DDP", 
        "city" : "서울시",
        "district":"서초구",
        "latitude":37.5, 
        "longitude": 126.99 ,
        "startDate" : "2021-12-21 ",
        "endDate" : "2022-03-20 ",
        "contactLink":"https://",
        "ticketPrice" :"15000",
        "reservationLink": "https://",
        "posterUrl": "https://",
        "progress":true,
        "likeCount": 120
      }
    ]
  }